<?xml version="1.0" encoding="utf-8"?>
<!-- Generator: Adobe Illustrator 15.1.0, SVG Export Plug-In . SVG Version: 6.00 Build 0)  -->
<!DOCTYPE svg PUBLIC "-//W3C//DTD SVG 1.1//EN" "http://www.w3.org/Graphics/SVG/1.1/DTD/svg11.dtd">
<svg version="1.1" id="Capa_1" xmlns="http://www.w3.org/2000/svg" xmlns:xlink="http://www.w3.org/1999/xlink" x="0px" y="0px"
	 width="100px" height="100px" viewBox="0 0 100 100" enable-background="new 0 0 100 100" xml:space="preserve">
<symbol  id="tagBody_1_" viewBox="0 -32.95 38 32.95">
	<g id="Capa_1_3_">
		<polygon fill-rule="evenodd" clip-rule="evenodd" fill="#FFFFFF" points="28.5,-0.05 28.5,0 38,-16.5 28.5,-32.95 9.5,-32.95 
			0,-16.5 9.5,-0.05 9.5,0 9.55,-0.05 		"/>
	</g>
</symbol>
<use xlink:href="#tagBody_1_"  width="38" height="32.95" y="-32.95" transform="matrix(1 0 0 -1 -93.0498 44.5498)" overflow="visible"/>
<g id="tagBody">
	<g id="Capa_1_1_">
		<g id="tagTip">
			<g id="Capa_1_4_">
				<polygon fill-rule="evenodd" clip-rule="evenodd" fill="#FFFFFF" points="20,0 10,17.369 0,0 				"/>
			</g>
		</g>
	</g>
</g>
</svg>
