<?xml version="1.0" encoding="utf-8"?>
<!-- Generator: Adobe Illustrator 15.1.0, SVG Export Plug-In . SVG Version: 6.00 Build 0)  -->
<!DOCTYPE svg PUBLIC "-//W3C//DTD SVG 1.1//EN" "http://www.w3.org/Graphics/SVG/1.1/DTD/svg11.dtd">
<svg version="1.1" id="Capa_1" xmlns="http://www.w3.org/2000/svg" xmlns:xlink="http://www.w3.org/1999/xlink" x="0px" y="0px"
	 width="100px" height="100px" viewBox="0 0 100 100" enable-background="new 0 0 100 100" xml:space="preserve">
<symbol  id="circle_3_" viewBox="-0.75 -40.75 41.5 41.5">
	<g id="Capa_1_2_">
		
			<path fill-rule="evenodd" clip-rule="evenodd" fill="none" stroke="#FFFFFF" stroke-width="1.5" stroke-linecap="round" stroke-linejoin="round" stroke-miterlimit="3" d="
			M20-40c-5.533,0-10.25,1.95-14.15,5.85S0-25.533,0-20S1.95-9.75,5.85-5.85S14.467,0,20,0s10.25-1.95,14.15-5.85S40-14.467,40-20
			s-1.95-10.25-5.85-14.15S25.533-40,20-40z"/>
	</g>
</symbol>
<g id="numberButton">
	<g id="Capa_1_1_">
		<g id="circle">
			<g id="Capa_1_4_">
				<g id="clockButton">
					<g id="Capa_1_5_">
						<g id="addButton">
							<g id="Capa_1_8_">
								
									<path fill-rule="evenodd" clip-rule="evenodd" fill="none" stroke="#FFFFFF" stroke-width="1.5" stroke-linecap="round" stroke-linejoin="round" stroke-miterlimit="3" d="
									M20,30V20H10 M30,20H20 M20,10v10"/>
								<g id="circle_1_">
									<g id="Capa_1_9_">
										
											<path fill-rule="evenodd" clip-rule="evenodd" fill="none" stroke="#FFFFFF" stroke-width="1.5" stroke-linecap="round" stroke-linejoin="round" stroke-miterlimit="3" d="
											M20,40c-5.533,0-10.25-1.95-14.15-5.85S0,25.533,0,20S1.95,9.75,5.85,5.85S14.467,0,20,0s10.25,1.95,14.15,5.85
											S40,14.467,40,20s-1.95,10.25-5.85,14.15S25.533,40,20,40z"/>
									</g>
								</g>
							</g>
						</g>
					</g>
				</g>
			</g>
		</g>
	</g>
</g>
</svg>
